{
    "swagger": "2.0",
    "info": {
        "title": "Blah",
        "description": "",
        "version": "1.0"
    },
    "produces": [
        "application/json"
    ],
    "paths": {
        "/api/user/register": {
            "post": {
                "tags": [
                    "user"
                ],
                "description": "register user for deposit product",
                "parameters": [
                    {
                        "name": "username",
                        "required": true,
                        "type": "string",
                        "in": "formData"
                    },
                    {
                        "name": "password",
                        "required": true,
                        "type": "string",
                        "in": "formData"
                    }
                ],
                "responses": {}
            }
        },
        "/api/session/login": {
            "post": {
                "tags": [
                    "session"
                ],
                "description": "login for get token",
                "parameters": [
                    {
                        "name": "username",
                        "required": true,
                        "type": "string",
                        "in": "formData"
                    },
                    {
                        "name": "password",
                        "required": true,
                        "type": "string",
                        "in": "formData"
                    }
                ],
                "responses": {}
            }
        },
        "/api/store/deposit": {
            "post": {
                "tags": [
                    "store"
                ],
                "description": "deposit product",
                "parameters": [
                    {
                        "name": "height",
                        "required": false,
                        "type": "integer",
                        "in": "formData"
                    },
                    {
                        "name": "width",
                        "required": false,
                        "type": "integer",
                        "in": "formData"
                    },
                    {
                        "name": "length",
                        "required": false,
                        "type": "integer",
                        "in": "formData"
                    },
                    {
                        "name": "typeId",
                        "required": true,
                        "type": "integer",
                        "in": "formData"
                    },
                    {
                        "name": "authorization",
                        "required": true,
                        "in": "header",
                        "type": "string"
                    }
                ],
                "responses": {}
            }
        },
        "/api/store/withdraw": {
            "post": {
                "tags": [
                    "store"
                ],
                "description": "withdraw product",
                "parameters": [
                    {
                        "name": "storeId",
                        "required": true,
                        "type": "integer",
                        "in": "formData"
                    },
                    {
                        "name": "fakerDateWithdraw",
                        "required": false,
                        "type": "string",
                        "in": "formData"
                    },
                    {
                        "name": "authorization",
                        "required": true,
                        "in": "header",
                        "type": "string"
                    }
                ],
                "responses": {}
            }
        },
        "/api/store/query/in": {
            "get":{
                "tags":["store"],
                "responses":{}
            }
        },
        "/api/store/query/out": {
            "get":{
                "tags":["store"],
                "responses":{}
            }
        },
        "/api/store/query/amount": {
            "get":{
                "tags":["store"],
                "responses":{}
            }
        }
    }
}